waves_Top_Module.vcd
$date
	Mon Feb 16 14:44:25 2026
$end
$version
	Icarus Verilog
$end
$timescale
	1ps
$end
$scope module tb_Top_Module $end
$var reg 1 ! clk $end
$var reg 1 " rst $end
$scope module DUT $end
$var wire 1 ! clk $end
$var wire 32 # if_in_branch_addr [31:0] $end
$var wire 32 $ if_in_jalr_addr [31:0] $end
$var wire 2 % if_in_pcsrc [1:0] $end
$var wire 1 " rst $end
$var wire 1 & wb_regwrite $end
$var wire 5 ' wb_rd [4:0] $end
$var wire 32 ( wb_in_pc4 [31:0] $end
$var wire 2 ) wb_in_memtoreg [1:0] $end
$var wire 32 * wb_in_mem_output [31:0] $end
$var wire 32 + wb_in_imm [31:0] $end
$var wire 32 , wb_in_alu_output [31:0] $end
$var wire 32 - wb_data [31:0] $end
$var wire 5 . stall [4:0] $end
$var wire 32 / rdata2_for_forwarding [31:0] $end
$var wire 32 0 mem_out_data [31:0] $end
$var wire 1 1 mem_in_regwrite $end
$var wire 32 2 mem_in_rdata2 [31:0] $end
$var wire 5 3 mem_in_rd [4:0] $end
$var wire 32 4 mem_in_pc4 [31:0] $end
$var wire 1 5 mem_in_memwrite $end
$var wire 2 6 mem_in_memtoreg [1:0] $end
$var wire 32 7 mem_in_imm [31:0] $end
$var wire 32 8 mem_in_alu_output [31:0] $end
$var wire 32 9 if_out_pc4 [31:0] $end
$var wire 32 : if_out_pc [31:0] $end
$var wire 32 ; if_out_instr [31:0] $end
$var wire 1 < id_out_uses_rs2 $end
$var wire 1 = id_out_uses_rs1 $end
$var wire 1 > id_out_regwrite $end
$var wire 32 ? id_out_rdata2 [31:0] $end
$var wire 32 @ id_out_rdata1 [31:0] $end
$var wire 5 A id_out_rd [4:0] $end
$var wire 1 B id_out_memwrite $end
$var wire 2 C id_out_memtoreg [1:0] $end
$var wire 32 D id_out_imm [31:0] $end
$var wire 2 E id_out_branch_flag [1:0] $end
$var wire 1 F id_out_b_sel $end
$var wire 2 G id_out_alu_op [1:0] $end
$var wire 1 H id_out_a_sel $end
$var wire 32 I id_in_pc4 [31:0] $end
$var wire 32 J id_in_pc [31:0] $end
$var wire 32 K id_in_instr [31:0] $end
$var wire 2 L forwarding_rdata2 [1:0] $end
$var wire 1 M ex_uses_rs2 $end
$var wire 1 N ex_uses_rs1 $end
$var wire 5 O ex_rs2 [4:0] $end
$var wire 5 P ex_rs1 [4:0] $end
$var wire 2 Q ex_out_pcsrc [1:0] $end
$var wire 32 R ex_out_branch_output [31:0] $end
$var wire 32 S ex_out_alu_output [31:0] $end
$var wire 1 T ex_in_regwrite $end
$var wire 32 U ex_in_rdata2 [31:0] $end
$var wire 32 V ex_in_rdata1 [31:0] $end
$var wire 5 W ex_in_rd [4:0] $end
$var wire 32 X ex_in_pc4 [31:0] $end
$var wire 32 Y ex_in_pc [31:0] $end
$var wire 1 Z ex_in_memwrite $end
$var wire 2 [ ex_in_memtoreg [1:0] $end
$var wire 32 \ ex_in_imm [31:0] $end
$var wire 7 ] ex_in_funct7 [6:0] $end
$var wire 3 ^ ex_in_funct3 [2:0] $end
$var wire 2 _ ex_in_branch_flag [1:0] $end
$var wire 1 ` ex_in_b_sel $end
$var wire 2 a ex_in_alu_op [1:0] $end
$var wire 1 b ex_in_a_sel $end
$var wire 2 c ex_forwarding_b [1:0] $end
$var wire 2 d ex_forwarding_a [1:0] $end
$scope module ex_inst $end
$var wire 32 e temp_b [31:0] $end
$var wire 32 f temp_a [31:0] $end
$var wire 32 g rdata2 [31:0] $end
$var wire 32 h rdata1 [31:0] $end
$var wire 2 i pcsrc [1:0] $end
$var wire 2 j pc_op [1:0] $end
$var wire 32 k pc [31:0] $end
$var wire 32 l mem_wb_wd [31:0] $end
$var wire 32 m imm [31:0] $end
$var wire 7 n funct7 [6:0] $end
$var wire 3 o funct3 [2:0] $end
$var wire 2 p forwarding_b_sel [1:0] $end
$var wire 2 q forwarding_a_sel [1:0] $end
$var wire 32 r ex_mem_alu_output [31:0] $end
$var wire 32 s branch_output [31:0] $end
$var wire 1 ` b_sel $end
$var wire 4 t alu_src [3:0] $end
$var wire 32 u alu_output [31:0] $end
$var wire 2 v alu_op [1:0] $end
$var wire 32 w alu_b_input [31:0] $end
$var wire 32 x alu_a_input [31:0] $end
$var wire 1 b a_sel $end
$var wire 1 y BrLtU $end
$var wire 1 z BrLt $end
$var wire 1 { BrEq $end
$scope module a_inst $end
$var wire 1 b sel $end
$var wire 32 | out [31:0] $end
$var wire 32 } b [31:0] $end
$var wire 32 ~ a [31:0] $end
$upscope $end
$scope module alu_ctrl_inst $end
$var wire 7 !" funct7 [6:0] $end
$var wire 3 "" funct3 [2:0] $end
$var wire 2 #" alu_op [1:0] $end
$var reg 4 $" alu_src [3:0] $end
$upscope $end
$scope module alu_inst $end
$var wire 1 z BrLt $end
$var wire 4 %" alu_src [3:0] $end
$var wire 1 &" overflow $end
$var wire 32 '" sa [31:0] $end
$var wire 32 (" sb [31:0] $end
$var wire 5 )" shamt [4:0] $end
$var wire 32 *" b [31:0] $end
$var wire 32 +" a [31:0] $end
$var wire 1 y BrLtU $end
$var wire 1 { BrEq $end
$var parameter 4 ," ADD $end
$var parameter 4 -" AND $end
$var parameter 4 ." OR $end
$var parameter 4 /" SLL $end
$var parameter 4 0" SLT $end
$var parameter 4 1" SLTU $end
$var parameter 4 2" SRA $end
$var parameter 4 3" SRL $end
$var parameter 4 4" SUB $end
$var parameter 4 5" XOR $end
$var reg 32 6" result [31:0] $end
$upscope $end
$scope module b_inst $end
$var wire 1 ` sel $end
$var wire 32 7" out [31:0] $end
$var wire 32 8" b [31:0] $end
$var wire 32 9" a [31:0] $end
$upscope $end
$scope module branch_adder_inst $end
$var wire 32 :" c [31:0] $end
$var wire 32 ;" b [31:0] $end
$var wire 32 <" a [31:0] $end
$upscope $end
$scope module branch_inst $end
$var wire 1 { BrEq $end
$var wire 1 z BrLt $end
$var wire 1 y BrLtU $end
$var wire 2 =" pc_op [1:0] $end
$var wire 3 >" funct3 [2:0] $end
$var reg 2 ?" pcsrc [1:0] $end
$upscope $end
$scope module forwarding_a_inst $end
$var wire 32 @" a [31:0] $end
$var wire 32 A" d [31:0] $end
$var wire 2 B" sel [1:0] $end
$var wire 32 C" c [31:0] $end
$var wire 32 D" b [31:0] $end
$var reg 32 E" out [31:0] $end
$upscope $end
$scope module forwarding_b_inst $end
$var wire 32 F" a [31:0] $end
$var wire 32 G" d [31:0] $end
$var wire 2 H" sel [1:0] $end
$var wire 32 I" c [31:0] $end
$var wire 32 J" b [31:0] $end
$var reg 32 K" out [31:0] $end
$upscope $end
$upscope $end
$scope module forwarding_inst $end
$var wire 1 M uses_rs2 $end
$var wire 1 N uses_rs1 $end
$var wire 5 L" rs2 [4:0] $end
$var wire 5 M" rs1 [4:0] $end
$var wire 1 Z memwrite $end
$var wire 1 & mem_wb_regwrite $end
$var wire 5 N" mem_wb_rd [4:0] $end
$var wire 1 1 ex_mem_regwrite $end
$var wire 5 O" ex_mem_rd [4:0] $end
$var reg 2 P" forwarding_a_sel [1:0] $end
$var reg 2 Q" forwarding_b_sel [1:0] $end
$var reg 2 R" forwarding_rdata2 [1:0] $end
$upscope $end
$scope module hazard_inst $end
$var wire 5 S" rs1 [4:0] $end
$var wire 5 T" rs2 [4:0] $end
$var wire 1 < uses_rs2 $end
$var wire 1 = uses_rs1 $end
$var wire 5 U" id_ex_rd [4:0] $end
$var wire 2 V" id_ex_memtoreg [1:0] $end
$var reg 5 W" stall [4:0] $end
$upscope $end
$scope module id_inst $end
$var wire 1 ! clk $end
$var wire 1 " rst $end
$var wire 32 X" wb_wd [31:0] $end
$var wire 1 & wb_regwrite $end
$var wire 5 Y" wb_rd [4:0] $end
$var wire 32 Z" temp_rdata2 [31:0] $end
$var wire 32 [" temp_rdata1 [31:0] $end
$var wire 3 \" immsrc [2:0] $end
$var wire 32 ]" if_instr [31:0] $end
$var wire 1 < id_uses_rs2 $end
$var wire 1 = id_uses_rs1 $end
$var wire 5 ^" id_rs2 [4:0] $end
$var wire 5 _" id_rs1 [4:0] $end
$var wire 1 > id_regwrite $end
$var wire 32 `" id_rdata2 [31:0] $end
$var wire 32 a" id_rdata1 [31:0] $end
$var wire 5 b" id_rd [4:0] $end
$var wire 2 c" id_pc_op [1:0] $end
$var wire 1 B id_memwrite $end
$var wire 2 d" id_memtoreg [1:0] $end
$var wire 32 e" id_imm [31:0] $end
$var wire 4 f" id_funct3 [3:0] $end
$var wire 1 F id_b_sel $end
$var wire 2 g" id_alu_op [1:0] $end
$var wire 1 H id_a_sel $end
$scope module ctrl_inst $end
$var wire 7 h" opcode [6:0] $end
$var reg 1 H a_sel $end
$var reg 2 i" alu_op [1:0] $end
$var reg 1 F b_sel $end
$var reg 3 j" immsrc [2:0] $end
$var reg 2 k" memtoreg [1:0] $end
$var reg 1 B memwrite $end
$var reg 2 l" pc_op [1:0] $end
$var reg 1 > regwrite $end
$var reg 1 = uses_rs1 $end
$var reg 1 < uses_rs2 $end
$upscope $end
$scope module immgen_inst $end
$var wire 3 m" immsrc [2:0] $end
$var wire 25 n" instr [31:7] $end
$var wire 32 o" imm_u [31:0] $end
$var wire 32 p" imm_s [31:0] $end
$var wire 32 q" imm_j [31:0] $end
$var wire 32 r" imm_i [31:0] $end
$var wire 32 s" imm_b [31:0] $end
$var reg 32 t" imm [31:0] $end
$upscope $end
$scope module reg_inst $end
$var wire 1 ! clk $end
$var wire 32 u" rdata1 [31:0] $end
$var wire 32 v" rdata2 [31:0] $end
$var wire 5 w" rs1 [4:0] $end
$var wire 5 x" rs2 [4:0] $end
$var wire 1 " rst $end
$var wire 32 y" wd [31:0] $end
$var wire 1 & regwrite $end
$var wire 5 z" rd [4:0] $end
$upscope $end
$upscope $end
$scope module if_inst $end
$var wire 32 {" branch_addr [31:0] $end
$var wire 1 ! clk $end
$var wire 32 |" jalr_addr [31:0] $end
$var wire 2 }" pcsrc [1:0] $end
$var wire 1 " rst $end
$var wire 5 ~" stall [4:0] $end
$var wire 32 !# pc_next [31:0] $end
$var wire 32 "# pc4 [31:0] $end
$var wire 32 ## pc [31:0] $end
$var wire 32 $# instr [31:0] $end
$scope module im_inst $end
$var wire 32 %# instr [31:0] $end
$var wire 32 &# addr [31:0] $end
$upscope $end
$scope module pc4_inst $end
$var wire 32 '# b [31:0] $end
$var wire 32 (# c [31:0] $end
$var wire 32 )# a [31:0] $end
$upscope $end
$scope module pc_inst $end
$var wire 1 ! clk $end
$var wire 1 " rst $end
$var wire 5 *# stall [4:0] $end
$var wire 32 +# pc_in [31:0] $end
$var reg 32 ,# pc_out [31:0] $end
$upscope $end
$scope module pc_mux_inst $end
$var wire 32 -# alu_output [31:0] $end
$var wire 32 .# branch_output [31:0] $end
$var wire 32 /# pc_plus_4 [31:0] $end
$var wire 2 0# pcsrc [1:0] $end
$var reg 32 1# pc_next [31:0] $end
$upscope $end
$upscope $end
$scope module rdata2_mux_inst $end
$var wire 32 2# d [31:0] $end
$var wire 2 3# sel [1:0] $end
$var wire 32 4# c [31:0] $end
$var wire 32 5# b [31:0] $end
$var wire 32 6# a [31:0] $end
$var reg 32 7# out [31:0] $end
$upscope $end
$scope module reg_ex_mem_inst $end
$var wire 1 ! clk $end
$var wire 32 8# ex_alu_output [31:0] $end
$var wire 32 9# ex_rdata2 [31:0] $end
$var wire 1 " rst $end
$var wire 1 T ex_regwrite $end
$var wire 5 :# ex_rd [4:0] $end
$var wire 32 ;# ex_pc_plus_4 [31:0] $end
$var wire 1 Z ex_memwrite $end
$var wire 2 <# ex_memtoreg [1:0] $end
$var wire 32 =# ex_imm [31:0] $end
$var reg 32 ># mem_alu_output [31:0] $end
$var reg 32 ?# mem_imm [31:0] $end
$var reg 2 @# mem_memtoreg [1:0] $end
$var reg 1 5 mem_memwrite $end
$var reg 32 A# mem_pc_plus_4 [31:0] $end
$var reg 5 B# mem_rd [4:0] $end
$var reg 32 C# mem_rdata2 [31:0] $end
$var reg 1 1 mem_regwrite $end
$upscope $end
$scope module reg_id_ex_inst $end
$var wire 1 ! clk $end
$var wire 1 H id_a_sel $end
$var wire 2 D# id_alu_op [1:0] $end
$var wire 1 F id_b_sel $end
$var wire 2 E# id_branch_flag [1:0] $end
$var wire 3 F# id_funct3 [2:0] $end
$var wire 7 G# id_funct7 [6:0] $end
$var wire 32 H# id_imm [31:0] $end
$var wire 2 I# id_memtoreg [1:0] $end
$var wire 1 B id_memwrite $end
$var wire 5 J# id_rd [4:0] $end
$var wire 32 K# id_rdata1 [31:0] $end
$var wire 32 L# id_rdata2 [31:0] $end
$var wire 1 > id_regwrite $end
$var wire 5 M# id_rs1 [4:0] $end
$var wire 5 N# id_rs2 [4:0] $end
$var wire 1 = id_uses_rs1 $end
$var wire 1 < id_uses_rs2 $end
$var wire 1 " rst $end
$var wire 5 O# stall [4:0] $end
$var wire 32 P# id_pc_plus_4 [31:0] $end
$var wire 32 Q# id_pc [31:0] $end
$var reg 1 b ex_a_sel $end
$var reg 2 R# ex_alu_op [1:0] $end
$var reg 1 ` ex_b_sel $end
$var reg 2 S# ex_branch_flag [1:0] $end
$var reg 3 T# ex_funct3 [2:0] $end
$var reg 7 U# ex_funct7 [6:0] $end
$var reg 32 V# ex_imm [31:0] $end
$var reg 2 W# ex_memtoreg [1:0] $end
$var reg 1 Z ex_memwrite $end
$var reg 32 X# ex_pc [31:0] $end
$var reg 32 Y# ex_pc_plus_4 [31:0] $end
$var reg 5 Z# ex_rd [4:0] $end
$var reg 32 [# ex_rdata1 [31:0] $end
$var reg 32 \# ex_rdata2 [31:0] $end
$var reg 1 T ex_regwrite $end
$var reg 5 ]# ex_rs1 [4:0] $end
$var reg 5 ^# ex_rs2 [4:0] $end
$var reg 1 N ex_uses_rs1 $end
$var reg 1 M ex_uses_rs2 $end
$upscope $end
$scope module reg_if_id_inst $end
$var wire 1 ! clk $end
$var wire 32 _# if_instr [31:0] $end
$var wire 32 `# if_pc [31:0] $end
$var wire 32 a# if_pc_plus_4 [31:0] $end
$var wire 1 " rst $end
$var wire 5 b# stall [4:0] $end
$var reg 32 c# id_instr [31:0] $end
$var reg 32 d# id_pc [31:0] $end
$var reg 32 e# id_pc_plus_4 [31:0] $end
$upscope $end
$scope module reg_mem_wb_inst $end
$var wire 1 ! clk $end
$var wire 32 f# mem_alu_output [31:0] $end
$var wire 32 g# mem_imm [31:0] $end
$var wire 2 h# mem_memtoreg [1:0] $end
$var wire 32 i# mem_pc_plus_4 [31:0] $end
$var wire 5 j# mem_rd [4:0] $end
$var wire 1 1 mem_regwrite $end
$var wire 1 " rst $end
$var wire 32 k# mem_mem_output [31:0] $end
$var reg 32 l# wb_alu_output [31:0] $end
$var reg 32 m# wb_imm [31:0] $end
$var reg 32 n# wb_mem_output [31:0] $end
$var reg 2 o# wb_memtoreg [1:0] $end
$var reg 32 p# wb_pc_plus_4 [31:0] $end
$var reg 5 q# wb_rd [4:0] $end
$var reg 1 & wb_regwrite $end
$upscope $end
$scope module stage_mem_inst $end
$var wire 32 r# alu_output [31:0] $end
$var wire 1 ! clk $end
$var wire 1 5 memwrite $end
$var wire 32 s# rdata2 [31:0] $end
$var wire 32 t# wb_data [31:0] $end
$scope module mem_inst $end
$var wire 32 u# addr [31:0] $end
$var wire 1 ! clk $end
$var wire 32 v# data [31:0] $end
$var wire 1 5 memwrite $end
$var wire 32 w# wd2 [31:0] $end
$var wire 12 x# DMEM_index [11:0] $end
$upscope $end
$upscope $end
$scope module wb_inst $end
$var wire 32 y# alu_output [31:0] $end
$var wire 32 z# imm [31:0] $end
$var wire 32 {# mem_data [31:0] $end
$var wire 2 |# memtoreg [1:0] $end
$var wire 32 }# pc_plus_4 [31:0] $end
$var reg 32 ~# wd [31:0] $end
$upscope $end
$upscope $end
$upscope $end
$scope module tb_Top_Module $end
$scope module DUT $end
$scope module stage_mem_inst $end
$scope module mem_inst $end
$var reg 32 !$ \RAM[1] [31:0] $end
$upscope $end
$upscope $end
$upscope $end
$upscope $end
$scope module tb_Top_Module $end
$scope module DUT $end
$scope module id_inst $end
$scope module reg_inst $end
$var reg 32 "$ \rg[1] [31:0] $end
$upscope $end
$upscope $end
$upscope $end
$upscope $end
$scope module tb_Top_Module $end
$scope module DUT $end
$scope module id_inst $end
$scope module reg_inst $end
$var reg 32 #$ \rg[2] [31:0] $end
$upscope $end
$upscope $end
$upscope $end
$upscope $end
$scope module tb_Top_Module $end
$scope module DUT $end
$scope module id_inst $end
$scope module reg_inst $end
$var reg 32 $$ \rg[3] [31:0] $end
$upscope $end
$upscope $end
$upscope $end
$upscope $end
$scope module tb_Top_Module $end
$scope module DUT $end
$scope module id_inst $end
$scope module reg_inst $end
$var reg 32 %$ \rg[4] [31:0] $end
$upscope $end
$upscope $end
$upscope $end
$upscope $end
$enddefinitions $end
$comment Show the parameter values. $end
$dumpall
b101 5"
b10 4"
b111 3"
b1000 2"
b1010 1"
b1001 0"
b110 /"
b100 ."
b11 -"
b1 ,"
$end
#0
$dumpvars
bx %$
bx $$
bx #$
bx "$
bx !$
bx ~#
bx }#
bx |#
bx {#
bx z#
bx y#
bx x#
bx w#
bx v#
bx u#
bx t#
bx s#
bx r#
bx q#
bx p#
bx o#
bx n#
bx m#
bx l#
bx k#
bx j#
bx i#
bx h#
bx g#
bx f#
bx e#
bx d#
bx c#
bx b#
bx a#
bx `#
bx _#
bx ^#
bx ]#
bx \#
bx [#
bx Z#
bx Y#
bx X#
bx W#
bx V#
bx U#
bx T#
bx S#
bx R#
bx Q#
bx P#
bx O#
bx N#
bx M#
bx L#
bx K#
bx J#
bx I#
b0 H#
bx G#
bx F#
bx E#
bx D#
bx C#
bx B#
bx A#
bx @#
bx ?#
bx >#
bx =#
bx <#
bx ;#
bx :#
bx 9#
bx 8#
bx 7#
bx 6#
bx 5#
bx 4#
bx 3#
b0 2#
bx 1#
bx 0#
bx /#
bx .#
bx -#
bx ,#
bx +#
bx *#
bx )#
bx (#
b100 '#
bx &#
bx %#
bx $#
bx ##
bx "#
bx !#
bx ~"
bx }"
bx |"
bx {"
bx z"
bx y"
bx x"
bx w"
bx v"
bx u"
b0 t"
bx0 s"
bx r"
bx0 q"
bx p"
bx000000000000 o"
bx n"
bx m"
bx l"
bx k"
bx j"
bx i"
bx h"
bx g"
b0xxx f"
b0 e"
bx d"
bx c"
bx b"
bx a"
bx `"
bx _"
bx ^"
bx ]"
bx \"
bx ["
bx Z"
bx Y"
bx X"
bx W"
bx V"
bx U"
bx T"
bx S"
bx R"
bx Q"
bx P"
bx O"
bx N"
bx M"
bx L"
bx K"
bx J"
bx I"
bx H"
b0 G"
bx F"
bx E"
bx D"
bx C"
bx B"
b0 A"
bx @"
bx ?"
bx >"
bx ="
bx <"
bx ;"
bx :"
bx 9"
bx 8"
bx 7"
bx 6"
bx +"
bx *"
bx )"
bx ("
bx '"
x&"
bx %"
bx $"
bx #"
bx ""
bx !"
bx ~
bx }
bx |
x{
xz
xy
bx x
bx w
bx v
bx u
bx t
bx s
bx r
bx q
bx p
bx o
bx n
bx m
bx l
bx k
bx j
bx i
bx h
bx g
bx f
bx e
bx d
bx c
xb
bx a
x`
bx _
bx ^
bx ]
bx \
bx [
xZ
bx Y
bx X
bx W
bx V
bx U
xT
bx S
bx R
bx Q
bx P
bx O
xN
xM
bx L
bx K
bx J
bx I
xH
bx G
xF
bx E
b0 D
bx C
xB
bx A
bx @
bx ?
x>
x=
x<
bx ;
bx :
bx 9
bx 8
bx 7
bx 6
x5
bx 4
bx 3
bx 2
x1
bx 0
bx /
bx .
bx -
bx ,
bx +
bx *
bx )
bx (
bx '
x&
bx %
bx $
bx #
0"
0!
$end
#1000
b0 \
b0 m
b0 8"
b0 <"
b0 =#
b0 V#
1!
#2000
0!
1"
#3000
b0 ?
b0 `"
b0 L#
b0 @
b0 a"
b0 K#
b0 r"
b0 p"
b0 s"
b0 q"
b0 o"
0<
1=
b0 \"
b0 j"
b0 m"
b0 C
b0 d"
b0 k"
b0 I#
0B
1>
b0 E
b0 c"
b0 l"
b0 E#
b11 G
b11 g"
b11 i"
b11 D#
1F
0H
b0 .
b0 W"
b0 ~"
b0 *#
b0 O#
b0 b#
b0 L
b0 R"
b0 3#
b0 c
b0 p
b0 H"
b0 Q"
b0 d
b0 q
b0 B"
b0 P"
b0 %
b0 }"
b0 0#
b0 Q
b0 i
b0 ?"
b1 t
b1 $"
b1 %"
b0 ^"
b0 _"
b0 A
b0 b"
b0 J#
b0 f"
b0 Z"
b0 v"
b0 x"
b0 ["
b0 u"
b0 w"
b0 n"
b10011 h"
b0 N#
b0 M#
b0 G#
b0 F#
b0 T"
b0 S"
b100 !#
b100 +#
b100 1#
0&
b0 )
b0 o#
b0 |#
b0 6
b0 @#
b0 h#
05
01
0M
0N
b0 [
b0 V"
b0 <#
b0 W#
0Z
0T
b0 _
b0 j
b0 ="
b0 S#
b0 a
b0 v
b0 #"
b0 R#
0`
b10011 K
b10011 ]"
b10011 c#
b100 9
b100 "#
b100 (#
b100 /#
b100 a#
b10100000000000010010011 ;
b10100000000000010010011 $#
b10100000000000010010011 %#
b10100000000000010010011 _#
b0 :
b0 ##
b0 &#
b0 )#
b0 ,#
b0 `#
b100000000000000 #$
1!
#4000
0!
0"
#5000
0z
0&"
b101 D
b101 e"
b101 t"
b101 H#
b0 )"
1{
b0 $
b0 |"
b0 -#
b0 S
b0 u
b0 6"
b0 8#
bx ?
bx `"
bx L#
b101 r"
b1 p"
b100000000000 s"
b100000000100 q"
b10100000000000000000000 o"
0y
b0 ("
b0 w
b0 *"
b0 K"
b0 '"
b0 x
b0 +"
b0 E"
b1000 !#
b1000 +#
b1000 1#
b101 ^"
b1 A
b1 b"
b1 J#
bx Z"
bx v"
b101 x"
b1010000000000001 n"
b101 N#
b101 T"
b0 e
b0 7"
b0 F"
b0 /
b0 7#
b0 9#
b0 f
b0 |
b0 @"
b1000 9
b1000 "#
b1000 (#
b1000 /#
b1000 a#
b11100000000000100010011 ;
b11100000000000100010011 $#
b11100000000000100010011 %#
b11100000000000100010011 _#
b100 :
b100 ##
b100 &#
b100 )#
b100 ,#
b100 `#
b100 I
b100 P#
b100 e#
b0 J
b0 Q#
b0 d#
b10100000000000010010011 K
b10100000000000010010011 ]"
b10100000000000010010011 c#
1N
b0 O
b0 L"
b0 ^#
b0 P
b0 M"
b0 ]#
b0 ]
b0 n
b0 !"
b0 U#
b0 ^
b0 o
b0 ""
b0 >"
b0 T#
1T
b11 a
b11 v
b11 #"
b11 R#
1`
0b
b0 W
b0 U"
b0 :#
b0 Z#
b0 U
b0 g
b0 9"
b0 6#
b0 \#
b0 V
b0 h
b0 ~
b0 [#
b0 7
b0 ?#
b0 g#
1!
#6000
0!
#7000
b111 D
b111 e"
b111 t"
b111 H#
b101 )"
0{
b101 $
b101 |"
b101 -#
b101 S
b101 u
b101 6"
b101 8#
b111 r"
b10 p"
b10 s"
b100000000110 q"
b11100000000000000000000 o"
b0 x#
1y
b101 ("
b101 w
b101 *"
b101 K"
b101 e
b101 7"
b101 F"
bx /
bx 7#
bx 9#
b111 ^"
b10 A
b10 b"
b10 J#
b111 x"
b1110000000000010 n"
b111 N#
b111 T"
b1100 !#
b1100 +#
b1100 1#
b0 +
b0 m#
b0 z#
11
b0 2
b0 C#
b0 s#
b0 w#
b0 8
b0 r
b0 D"
b0 J"
b0 5#
b0 >#
b0 f#
b0 r#
b0 u#
b0 3
b0 O"
b0 B#
b0 j#
b101 O
b101 L"
b101 ^#
b100 X
b100 ;#
b100 Y#
b101 #
b101 {"
b101 .#
b101 R
b101 s
b101 :"
b0 Y
b0 k
b0 }
b0 ;"
b0 X#
b101 \
b101 m
b101 8"
b101 <"
b101 =#
b101 V#
b1 W
b1 U"
b1 :#
b1 Z#
bx U
bx g
bx 9"
bx 6#
bx \#
b1000 I
b1000 P#
b1000 e#
b100 J
b100 Q#
b100 d#
b11100000000000100010011 K
b11100000000000100010011 ]"
b11100000000000100010011 c#
b1100 9
b1100 "#
b1100 (#
b1100 /#
b1100 a#
b1000001000000110110011 ;
b1000001000000110110011 $#
b1000001000000110110011 %#
b1000001000000110110011 _#
b1000 :
b1000 ##
b1000 &#
b1000 )#
b1000 ,#
b1000 `#
1!
#8000
0!
#9000
b0 D
b0 e"
b0 t"
b0 H#
b111 )"
b111 $
b111 |"
b111 -#
b111 S
b111 u
b111 6"
b111 8#
b100000000000000 ?
b100000000000000 `"
b100000000000000 L#
bx @
bx a"
bx K#
b10 r"
b11 p"
b100000000010 s"
b1000000000000010 q"
b1000001000000000000000 o"
1<
b101 \"
b101 j"
b101 m"
1=
1>
b10 G
b10 g"
b10 i"
b10 D#
0F
b111 ("
b111 w
b111 *"
b111 K"
b10 ^"
b1 _"
b11 A
b11 b"
b11 J#
b100000000000000 Z"
b100000000000000 v"
b10 x"
bx ["
bx u"
b1 w"
b100000100000011 n"
b110011 h"
b10 N#
b1 M#
b10 T"
b1 S"
b10000 !#
b10000 +#
b10000 1#
b111 e
b111 7"
b111 F"
b1 x#
b0 -
b0 l
b0 C"
b0 I"
b0 X"
b0 y"
b0 ~#
b10000 9
b10000 "#
b10000 (#
b10000 /#
b10000 a#
b100000000000010010011 ;
b100000000000010010011 $#
b100000000000010010011 %#
b100000000000010010011 _#
b1100 :
b1100 ##
b1100 &#
b1100 )#
b1100 ,#
b1100 `#
b1100 I
b1100 P#
b1100 e#
b1000 J
b1000 Q#
b1000 d#
b1000001000000110110011 K
b1000001000000110110011 ]"
b1000001000000110110011 c#
b111 O
b111 L"
b111 ^#
b1000 X
b1000 ;#
b1000 Y#
b100 Y
b100 k
b100 }
b100 ;"
b100 X#
b1011 #
b1011 {"
b1011 .#
b1011 R
b1011 s
b1011 :"
b111 \
b111 m
b111 8"
b111 <"
b111 =#
b111 V#
b10 W
b10 U"
b10 :#
b10 Z#
b101 7
b101 ?#
b101 g#
b100 4
b100 A#
b100 i#
bx 2
bx C#
bx s#
bx w#
b101 8
b101 r
b101 D"
b101 J"
b101 5#
b101 >#
b101 f#
b101 r#
b101 u#
b1 3
b1 O"
b1 B#
b1 j#
1&
b0 '
b0 N"
b0 Y"
b0 z"
b0 q#
b0 ,
b0 4#
b0 l#
b0 y#
1!
#10000
0!
#11000
b1100 $
b1100 |"
b1100 -#
b1100 S
b1100 u
b1100 6"
b1100 8#
b1 D
b1 e"
b1 t"
b1 H#
b101 '"
b101 x
b101 +"
b101 E"
b101 ?
b101 `"
b101 L#
b0 @
b0 a"
b0 K#
b1 r"
b1 p"
b100000000000 s"
b100000000000 q"
b100000000000000000000 o"
1F
0<
1=
b0 \"
b0 j"
b0 m"
1>
b11 G
b11 g"
b11 i"
b11 D#
b101 -
b101 l
b101 C"
b101 I"
b101 X"
b101 y"
b101 ~#
b1 c
b1 p
b1 H"
b1 Q"
b10 d
b10 q
b10 B"
b10 P"
b100000000000000 e
b100000000000000 7"
b100000000000000 F"
b100000000000000 /
b100000000000000 7#
b100000000000000 9#
bx f
bx |
bx @"
b1 ^"
b0 _"
b1 A
b1 b"
b1 J#
bx Z"
bx v"
b1 x"
b0 ["
b0 u"
b0 w"
b10000000000001 n"
b10011 h"
b1 N#
b0 M#
b1 T"
b0 S"
b10100 !#
b10100 +#
b10100 1#
b1 '
b1 N"
b1 Y"
b1 z"
b1 q#
b100 (
b100 p#
b100 }#
b101 +
b101 m#
b101 z#
b101 ,
b101 4#
b101 l#
b101 y#
b111 7
b111 ?#
b111 g#
b1000 4
b1000 A#
b1000 i#
b111 8
b111 r
b111 D"
b111 J"
b111 5#
b111 >#
b111 f#
b111 r#
b111 u#
b10 3
b10 O"
b10 B#
b10 j#
1M
b10 O
b10 L"
b10 ^#
b1 P
b1 M"
b1 ]#
b1100 X
b1100 ;#
b1100 Y#
b1000 Y
b1000 k
b1000 }
b1000 ;"
b1000 X#
b10 a
b10 v
b10 #"
b10 R#
0`
b1000 #
b1000 {"
b1000 .#
b1000 R
b1000 s
b1000 :"
b0 \
b0 m
b0 8"
b0 <"
b0 =#
b0 V#
b11 W
b11 U"
b11 :#
b11 Z#
b100000000000000 U
b100000000000000 g
b100000000000000 9"
b100000000000000 6#
b100000000000000 \#
bx V
bx h
bx ~
bx [#
b10000 I
b10000 P#
b10000 e#
b1100 J
b1100 Q#
b1100 d#
b100000000000010010011 K
b100000000000010010011 ]"
b100000000000010010011 c#
b10100 9
b10100 "#
b10100 (#
b10100 /#
b10100 a#
b100001000000100110011 ;
b100001000000100110011 $#
b100001000000100110011 %#
b100001000000100110011 _#
b10000 :
b10000 ##
b10000 &#
b10000 )#
b10000 ,#
b10000 `#
1!
#12000
0!
